{
    "KPackageStructure": "Plasma/Applet",
    "KPlugin": {
        "Authors": [
            {
                "Email": "sebas@kde.org",
                "Name": "Sebastian Kügler",
                "Name[ar]": "Sebastian Kügler",
                "Name[az]": "Sebastian Kügler",
                "Name[be]": "Sebastian Kügler",
                "Name[bg]": "Sebastian Kügler",
                "Name[ca@valencia]": "Sebastian Kügler",
                "Name[ca]": "Sebastian Kügler",
                "Name[cs]": "Sebastian Kügler",
                "Name[de]": "Sebastian Kügler",
                "Name[en_GB]": "Sebastian Kügler",
                "Name[eo]": "Sebastian Kügler",
                "Name[es]": "Sebastian Kügler",
                "Name[eu]": "Sebastian Kügler",
                "Name[fi]": "Sebastian Kügler",
                "Name[fr]": "Sebastian Kügler",
                "Name[gl]": "Sebastian Kügler",
                "Name[he]": "סבסטיאן קיגלר",
                "Name[hu]": "Sebastian Kügler",
                "Name[ia]": "Sebastian Kügler",
                "Name[id]": "Sebastian Kügler",
                "Name[it]": "Sebastian Kügler",
                "Name[ka]": "Sebastian Kügler",
                "Name[ko]": "Sebastian Kügler",
                "Name[lv]": "Sebastian Kügler",
                "Name[nl]": "Sebastian Kügler",
                "Name[nn]": "Sebastian Kügler",
                "Name[pl]": "Sebastian Kügler",
                "Name[pt]": "Sebastian Kügler",
                "Name[pt_BR]": "Sebastian Kügler",
                "Name[ru]": "Sebastian Kügler",
                "Name[sa]": "सेबास्टियन कुग्लर",
                "Name[sk]": "Sebastian Kügler",
                "Name[sl]": "Sebastian Kügler",
                "Name[sv]": "Sebastian Kügler",
                "Name[ta]": "ஸெபாஸ்டியன் கூக்லர்",
                "Name[tr]": "Sebastian Kügler",
                "Name[uk]": "Sebastian Kügler",
                "Name[vi]": "Sebastian Kügler",
                "Name[x-test]": "xxSebastian Küglerxx",
                "Name[zh_CN]": "Sebastian Kügler",
                "Name[zh_TW]": "Sebastian Kügler"
            }
        ],
        "Category": "Graphics",
        "Description": "Futzing with Visual Effects",
        "Description[az]": "Vizual Effektlər nümunəsi",
        "Description[be]": "Дэманстрацыя візуальных эфектаў",
        "Description[bg]": "Заиграване с визуалните ефекти",
        "Description[ca@valencia]": "Jugant amb els efectes visuals",
        "Description[ca]": "Jugant amb els efectes visuals",
        "Description[en_GB]": "Futzing with Visual Effects",
        "Description[eo]": "Futzing kun Vidaj Efektoj",
        "Description[es]": "Jugando con efectos visuales",
        "Description[eu]": "Denbora xahutu ikus-efektuekin",
        "Description[fi]": "Leiki visuaalisilla tehosteilla",
        "Description[fr]": "Les effets visuels à la louche",
        "Description[gl]": "Perdas de tempo con efectos visuais.",
        "Description[he]": "לשחק עם אפקטים חזותיים",
        "Description[hu]": "Játék vizuális hatásokkal",
        "Description[ia]": "Jocante (Futzing) con effectos visual",
        "Description[id]": "Futzing dengan Efek Visual",
        "Description[it]": "Divertirsi con gli effetti visuali",
        "Description[ka]": "ვიზუალური ეფექტის მაგალითები",
        "Description[ko]": "시각 효과 가지고 놀기",
        "Description[lv]": "Spēlēšanās ar vizuāliem efektiem",
        "Description[nl]": "Tijd verspillen met visuele effecten",
        "Description[nn]": "Fomling med visuelle effektar",
        "Description[pl]": "Grzebanie przy efektach wizualnych",
        "Description[pt]": "Brincar com Efeitos Visuais",
        "Description[pt_BR]": "Brincando com efeitos visuais",
        "Description[ru]": "Примеры визуальных эффектов",
        "Description[sa]": "दृश्यप्रभावैः सह Futzing",
        "Description[sk]": "Hranie sa s vizuálnymi efektmi",
        "Description[sl]": "Preigravanje z vizualnimi učinki",
        "Description[sv]": "Greja med visuella effekter",
        "Description[tr]": "Görsel Efektlerle Oynaşma",
        "Description[uk]": "Маніпулювання візуальними ефектами",
        "Description[vi]": "Thử các hiệu ứng trực quan",
        "Description[x-test]": "xxFutzing with Visual Effectsxx",
        "Description[zh_CN]": "测试各种视觉效果",
        "Description[zh_TW]": "玩玩視覺效果",
        "Icon": "plasma",
        "Id": "org.kde.example.testshaders",
        "License": "GPLv2+",
        "Name": "Shader Test",
        "Name[az]": "Şeyderin testi",
        "Name[be]": "Тэставанне шэйдараў",
        "Name[bg]": "Тест на шейдър",
        "Name[ca@valencia]": "Prova de «shader»",
        "Name[ca]": "Prova de «shader»",
        "Name[de]": "Shadertest",
        "Name[en_GB]": "Shader Test",
        "Name[eo]": "Shader Testo",
        "Name[es]": "Prueba de sombreado",
        "Name[eu]": "Itzaldura-proba",
        "Name[fi]": "Varjostustesti",
        "Name[fr]": "Test de shader",
        "Name[gl]": "Proba de sombreador",
        "Name[he]": "בדיקת הצללה (Shader)",
        "Name[hu]": "Árnyékolóteszt",
        "Name[ia]": "Essayo de umbrator (Shader)",
        "Name[id]": "Uji Shader",
        "Name[it]": "Prova shader",
        "Name[ka]": "შეიდეერის ტესტი",
        "Name[ko]": "셰이더 테스트",
        "Name[lv]": "Ēnotāja tests",
        "Name[nl]": "Test van schaduw",
        "Name[nn]": "Skuggar-test",
        "Name[pl]": "Próba cieniowania",
        "Name[pt]": "Teste de Sombreado",
        "Name[pt_BR]": "Teste do sombreador",
        "Name[ru]": "Проверка шейдера",
        "Name[sa]": "शेडर परीक्षण",
        "Name[sk]": "Test tieňovačov",
        "Name[sl]": "Preizkus osenčevalnika",
        "Name[sv]": "Skuggningstest",
        "Name[tr]": "Gölgelendirici Sınaması",
        "Name[uk]": "Тестування підпрограм побудови тіней",
        "Name[vi]": "Kiểm thử trình đánh bóng",
        "Name[x-test]": "xxShader Testxx",
        "Name[zh_CN]": "着色器测试",
        "Name[zh_TW]": "著色器測試",
        "Version": "",
        "Website": ""
    },
    "Keywords": "",
    "X-KDE-ParentApp": ""
}
