{
    "KPackageStructure": "Plasma/Wallpaper",
    "KPlugin": {
        "Authors": [
            {
                "Email": "sebas@kde.org",
                "Name": "Sebastian Kügler",
                "Name[ar]": "Sebastian Kügler",
                "Name[az]": "Sebastian Kügler",
                "Name[be]": "Sebastian Kügler",
                "Name[bg]": "Sebastian Kügler",
                "Name[ca@valencia]": "Sebastian Kügler",
                "Name[ca]": "Sebastian Kügler",
                "Name[cs]": "Sebastian Kügler",
                "Name[de]": "Sebastian Kügler",
                "Name[en_GB]": "Sebastian Kügler",
                "Name[eo]": "Sebastian Kügler",
                "Name[es]": "Sebastian Kügler",
                "Name[eu]": "Sebastian Kügler",
                "Name[fi]": "Sebastian Kügler",
                "Name[fr]": "Sebastian Kügler",
                "Name[gl]": "Sebastian Kügler",
                "Name[he]": "סבסטיאן קיגלר",
                "Name[hu]": "Sebastian Kügler",
                "Name[ia]": "Sebastian Kügler",
                "Name[id]": "Sebastian Kügler",
                "Name[it]": "Sebastian Kügler",
                "Name[ka]": "Sebastian Kügler",
                "Name[ko]": "Sebastian Kügler",
                "Name[lv]": "Sebastian Kügler",
                "Name[nl]": "Sebastian Kügler",
                "Name[nn]": "Sebastian Kügler",
                "Name[pl]": "Sebastian Kügler",
                "Name[pt]": "Sebastian Kügler",
                "Name[pt_BR]": "Sebastian Kügler",
                "Name[ru]": "Sebastian Kügler",
                "Name[sa]": "सेबास्टियन कुग्लर",
                "Name[sk]": "Sebastian Kügler",
                "Name[sl]": "Sebastian Kügler",
                "Name[sv]": "Sebastian Kügler",
                "Name[ta]": "ஸெபாஸ்டியன் கூக்லர்",
                "Name[tr]": "Sebastian Kügler",
                "Name[uk]": "Sebastian Kügler",
                "Name[vi]": "Sebastian Kügler",
                "Name[x-test]": "xxSebastian Küglerxx",
                "Name[zh_CN]": "Sebastian Kügler",
                "Name[zh_TW]": "Sebastian Kügler"
            }
        ],
        "Category": "",
        "Description": "Example Autumn Wallpaper",
        "Description[bg]": "Примерен тапет Есен",
        "Description[ca@valencia]": "Fons de pantalla d'exemple Tardor",
        "Description[ca]": "Fons de pantalla d'exemple Tardor",
        "Description[eo]": "Ekzempla Aŭtun-Tapeto",
        "Description[es]": "Ejemplo de fondo de pantalla de otoño",
        "Description[eu]": "Udazkena adibide horma-papera",
        "Description[fi]": "Syksyinen esimerkkitaustakuva",
        "Description[fr]": "Exemple de fonds d'écran d'automne",
        "Description[gl]": "Fondo de outono de exemplo.",
        "Description[he]": "תמונת רקע של סתיו לדוגמה",
        "Description[hu]": "Példa őszi háttérkép",
        "Description[ia]": "Tapete de papiro de Autumno de Exemplo",
        "Description[it]": "Sfondo autunnale di esempio",
        "Description[ka]": "სამაგალითო შემოდგომის ფონის სურათი",
        "Description[ko]": "예제 가을 배경 그림",
        "Description[lv]": "Parauga rudens tapete",
        "Description[nl]": "Voorbeeld van achtergrondafbeelding met najaar",
        "Description[pl]": "Przykładowa tapeta jesienna",
        "Description[pt_BR]": "Exemplo de papel de parede de outono",
        "Description[ru]": "Пример обоев «осень»",
        "Description[sa]": "उदाहरणम् शरदः (Autumn) दीवार्पत्तिः",
        "Description[sl]": "Primer jesenskega ozadja",
        "Description[tr]": "Örnek Güz Duvar Kağıdı",
        "Description[uk]": "Приклад осіннього фонового зображення",
        "Description[vi]": "Phông nền mùa thu ví dụ",
        "Description[x-test]": "xxExample Autumn Wallpaperxx",
        "Description[zh_CN]": "示例 Autumn 秋色壁纸",
        "Description[zh_TW]": "範例秋天桌布",
        "Icon": "java",
        "Id": "org.kde.autumn",
        "License": "GPLv2+",
        "Name": "Autumn",
        "Name[ar]": "الخريف",
        "Name[az]": "Payız",
        "Name[be]": "Autumn",
        "Name[bg]": "Autumn",
        "Name[ca@valencia]": "Tardor",
        "Name[ca]": "Tardor",
        "Name[cs]": "Podzim",
        "Name[de]": "Herbst",
        "Name[en_GB]": "Autumn",
        "Name[eo]": "Aŭtuno",
        "Name[es]": "Otoño",
        "Name[eu]": "Udazkena",
        "Name[fi]": "Syksy",
        "Name[fr]": "Automne",
        "Name[gl]": "Outono",
        "Name[he]": "סתיו",
        "Name[hu]": "Ősz",
        "Name[ia]": "Autumno",
        "Name[id]": "Autumn",
        "Name[it]": "Autunno",
        "Name[ka]": "შემოდგომა",
        "Name[ko]": "가을",
        "Name[lv]": "Rudens",
        "Name[nl]": "Herfst",
        "Name[nn]": "Haust",
        "Name[pl]": "Jesień",
        "Name[pt]": "Outono",
        "Name[pt_BR]": "Outono",
        "Name[ru]": "Осень",
        "Name[sa]": "शरदः (Autumn)",
        "Name[sk]": "Jeseň",
        "Name[sl]": "Jesen",
        "Name[sv]": "Höst",
        "Name[tr]": "Güz",
        "Name[uk]": "Осінь",
        "Name[vi]": "Mùa thu",
        "Name[x-test]": "xxAutumnxx",
        "Name[zh_CN]": "Autumn 秋色",
        "Name[zh_TW]": "秋天",
        "Version": "",
        "Website": ""
    },
    "Keywords": "",
    "X-KDE-ParentApp": ""
}
