{
    "KPackageStructure": "Plasma/Applet",
    "KPlugin": {
        "Authors": [
            {
                "Email": "sebas@kde.org",
                "Name": "Sebastian Kügler",
                "Name[ar]": "Sebastian Kügler",
                "Name[az]": "Sebastian Kügler",
                "Name[be]": "Sebastian Kügler",
                "Name[bg]": "Sebastian Kügler",
                "Name[ca@valencia]": "Sebastian Kügler",
                "Name[ca]": "Sebastian Kügler",
                "Name[cs]": "Sebastian Kügler",
                "Name[de]": "Sebastian Kügler",
                "Name[en_GB]": "Sebastian Kügler",
                "Name[eo]": "Sebastian Kügler",
                "Name[es]": "Sebastian Kügler",
                "Name[eu]": "Sebastian Kügler",
                "Name[fi]": "Sebastian Kügler",
                "Name[fr]": "Sebastian Kügler",
                "Name[gl]": "Sebastian Kügler",
                "Name[he]": "סבסטיאן קיגלר",
                "Name[hu]": "Sebastian Kügler",
                "Name[ia]": "Sebastian Kügler",
                "Name[id]": "Sebastian Kügler",
                "Name[it]": "Sebastian Kügler",
                "Name[ka]": "Sebastian Kügler",
                "Name[ko]": "Sebastian Kügler",
                "Name[lv]": "Sebastian Kügler",
                "Name[nl]": "Sebastian Kügler",
                "Name[nn]": "Sebastian Kügler",
                "Name[pl]": "Sebastian Kügler",
                "Name[pt]": "Sebastian Kügler",
                "Name[pt_BR]": "Sebastian Kügler",
                "Name[ru]": "Sebastian Kügler",
                "Name[sa]": "सेबास्टियन कुग्लर",
                "Name[sk]": "Sebastian Kügler",
                "Name[sl]": "Sebastian Kügler",
                "Name[sv]": "Sebastian Kügler",
                "Name[ta]": "ஸெபாஸ்டியன் கூக்லர்",
                "Name[tr]": "Sebastian Kügler",
                "Name[uk]": "Sebastian Kügler",
                "Name[vi]": "Sebastian Kügler",
                "Name[x-test]": "xxSebastian Küglerxx",
                "Name[zh_CN]": "Sebastian Kügler",
                "Name[zh_TW]": "Sebastian Kügler"
            }
        ],
        "Category": "Development",
        "Description": "Report a bug in Plasma",
        "Description[az]": "Plasmadakı xəta hesabatı",
        "Description[be]": "Адправіць справаздачу пра хібу ў Plasma",
        "Description[bg]": "Подаване на сигнал за грешка в Plasma",
        "Description[ca@valencia]": "Informeu d'un error en Plasma",
        "Description[ca]": "Informa d'un error en el Plasma",
        "Description[cs]": "Nahlásit chybu v Plasma",
        "Description[de]": "Einen Fehler in Plasma berichten",
        "Description[en_GB]": "Report a bug in Plasma",
        "Description[eo]": "Raporti cimon en Plasma",
        "Description[es]": "Informar de un fallo en Plasma",
        "Description[eu]": "Bidali Plasmako akats baten berri",
        "Description[fi]": "Ilmoita ohjelmavirheestä Plasmassa",
        "Description[fr]": "Signaler un bogue de Plasma",
        "Description[gl]": "Informar dun fallo en Plasma.",
        "Description[he]": "דיוח על תקלה בפלזמה",
        "Description[hu]": "Plasma hiba bejelentése",
        "Description[ia]": "Reporta un bug in Plasma",
        "Description[id]": "Laporkan sebuah bug di Plasma",
        "Description[it]": "Segnala un bug in Plasma",
        "Description[ka]": "Plasma-ის შეცდომის ანგარიში",
        "Description[ko]": "Plasma 버그 보고",
        "Description[lv]": "Ziņot par „Plasma“ kļūdu",
        "Description[nl]": "Een bug in Plasma rapporteren",
        "Description[nn]": "Meld frå om feil i Plasma",
        "Description[pl]": "Zgłoś błąd w Plazmie",
        "Description[pt]": "Comunicar um erro no Plasma",
        "Description[pt_BR]": "Relate um erro no Plasma",
        "Description[ru]": "Отчёт об ошибке в Plasma",
        "Description[sa]": "प्लाज्मायां दोषस्य सूचनां ददातु",
        "Description[sk]": "Nahlásiť chybu v Plasma",
        "Description[sl]": "Poročaj o hrošču v Plasmi",
        "Description[sv]": "Rapportera ett fel i Plasma",
        "Description[ta]": "பிளாஸ்மாவில் ஓர் பிழையை தெரிவி",
        "Description[tr]": "Plasma'daki bir hatayı bildirin",
        "Description[uk]": "Повідомити про ваду у Плазмі",
        "Description[vi]": "Báo một lỗi trong Plasma",
        "Description[x-test]": "xxReport a bug in Plasmaxx",
        "Description[zh_CN]": "报告 Plasma 程序缺陷",
        "Description[zh_TW]": "回報 Plasma 的問題",
        "Icon": "kbugbuster",
        "Id": "org.kde.example.bugreport",
        "License": "GPL",
        "Name": "Bug",
        "Name[ar]": "علّة",
        "Name[az]": "Xəta",
        "Name[be]": "Хіба",
        "Name[bg]": "Бъг",
        "Name[ca@valencia]": "S'ha produït un error",
        "Name[ca]": "Error",
        "Name[cs]": "Chyba",
        "Name[de]": "Fehler",
        "Name[en_GB]": "Bug",
        "Name[eo]": "Cimo",
        "Name[es]": "Fallo",
        "Name[eu]": "Akatsa",
        "Name[fi]": "Ohjelmavirhe",
        "Name[fr]": "Bogue",
        "Name[gl]": "Fallo",
        "Name[he]": "תקלה",
        "Name[hu]": "Hiba",
        "Name[ia]": "Bug",
        "Name[id]": "Bug",
        "Name[it]": "Bug",
        "Name[ka]": "შეცდომა",
        "Name[ko]": "버그",
        "Name[lv]": "Kļūda",
        "Name[nl]": "Bug",
        "Name[nn]": "Feil",
        "Name[pl]": "Błąd",
        "Name[pt]": "Insecto",
        "Name[pt_BR]": "Erro",
        "Name[ru]": "Ошибка",
        "Name[sa]": "दोष",
        "Name[sk]": "Chyba",
        "Name[sl]": "Hrošč",
        "Name[sv]": "Fel",
        "Name[ta]": "பிழை",
        "Name[tr]": "Hata",
        "Name[uk]": "Вада",
        "Name[vi]": "Lỗi",
        "Name[x-test]": "xxBugxx",
        "Name[zh_CN]": "程序缺陷",
        "Name[zh_TW]": "錯誤",
        "Version": "",
        "Website": "https://bugs.kde.org"
    },
    "Keywords": "plasma;bugzilla;bug;development;support;",
    "Keywords[az]": "plasma;bugzilla;bug;development;support;səhv;xəta;dəstək;tərtibat;",
    "Keywords[ca@valencia]": "plasma;bugzilla;error;desenvolupament;suport;",
    "Keywords[ca]": "plasma;bugzilla;error;desenvolupament;suport;",
    "Keywords[da]": "plasma;bugzilla;bug;udvikling;støtte;",
    "Keywords[de]": "plasma;bugzilla;Fehler;Entwicklung;Unterstützung;",
    "Keywords[en_GB]": "plasma;bugzilla;bug;development;support;",
    "Keywords[es]": "plasma;bugzilla;fallo;desarrollo;soporte;",
    "Keywords[et]": "plasma;bugzilla;viga;arendus;toetus;veateade;vearaport;",
    "Keywords[eu]": "plasma;bugzilla;akatsa;bug;garapena;euskarria;",
    "Keywords[fi]": "plasma;bugzilla;bug;bugi;vika;virhe;development;kehitys;kehittäminen;support;tuki;",
    "Keywords[fr]": "plasma;bugzilla;bug;développement;gestion;",
    "Keywords[gd]": "plasma;bugzilla;bug;development;support;buga;leasachadh;taic;cobhair;",
    "Keywords[gl]": "plasma;bugzilla;bug;erro;fallo;desenvolvemento;support;soporte;asistencia;asistencia técnica;axuda;",
    "Keywords[hu]": "plasma;bugzilla;hiba;fejlesztés;támogatás;",
    "Keywords[ia]": "plasma;bugzilla;bug;development;support;",
    "Keywords[id]": "plasma;bugzilla;bug;development;support;",
    "Keywords[it]": "plasma;bugzilla;bug;sviluppo;supporto;",
    "Keywords[ko]": "plasma;bugzilla;bug;development;support;버그;개발;지원;",
    "Keywords[lt]": "plasma;bugzilla;klaida;kūrimas;palaikymas;programavimas;strigtis;",
    "Keywords[nb]": "plasma;bugzilla;feil;utvikling;støtte;",
    "Keywords[nl]": "plasma;bugzilla;bug;ontwikkeling;ondersteuning;",
    "Keywords[nn]": "plasma;bugzilla;feil;utvikling;støtte;",
    "Keywords[pl]": "plazma;bugzilla;błąd;rozwój;programowanie;wsparcie;obsługa;",
    "Keywords[pt]": "plasma;bugzilla;erro;desenvolvimento;suporte;",
    "Keywords[pt_BR]": "plasma;bugzilla;erro;bug;desenvolvimento;suporte;",
    "Keywords[ro]": "plasma;bugzilla;bug;development;suport;problemă;",
    "Keywords[ru]": "plasma;bugzilla;bug;development;support;ошибка;сбой;поддержка;разработка;",
    "Keywords[sk]": "plasma;bugzilla;chyba;vývoj;podpora;",
    "Keywords[sl]": "plasma;bugzilla;hrošč;napaka;razvoj;podpora;",
    "Keywords[sr@ijekavian]": "plasma;bugzilla;bug;development;support;Плазма;Бубаждаја;грешка;развој;подршка;",
    "Keywords[sr@ijekavianlatin]": "plasma;bugzilla;bug;development;support;Plasma;Bubaždaja;greška;razvoj;podrška;",
    "Keywords[sr@latin]": "plasma;bugzilla;bug;development;support;Plasma;Bubaždaja;greška;razvoj;podrška;",
    "Keywords[sr]": "plasma;bugzilla;bug;development;support;Плазма;Бубаждаја;грешка;развој;подршка;",
    "Keywords[sv]": "plasma;bugzilla;fel;utveckling;support;",
    "Keywords[ta]": "plasma;bugzilla;bug;development;support;பிளாஸ்மா;பிழை;தவறு;சிக்கல்;ஆதரவு;பிழையறிக்கை;",
    "Keywords[tg]": "plasma;bugzilla;хато;барномарезӣ;дастгирӣ;",
    "Keywords[tr]": "plazma;bugzilla;hata;geliştirme;destek;plasma;",
    "Keywords[uk]": "plasma;bugzilla;bug;development;support;плазма;багзілла;вада;баг;розробка;підтримка;супровід;помилка;",
    "Keywords[vi]": "plasma;bugzilla;bug;development;support;lỗi;phát triển;hỗ trợ;",
    "Keywords[x-test]": "xxplasmaxx;xxbugzillaxx;xxbugxx;xxdevelopmentxx;xxsupportxx;",
    "Keywords[zh_CN]": "plasma;bugzilla;bug;development;support;错误;;程序缺陷;开发;支持;",
    "Keywords[zh_TW]": "plasma;bugzilla;bug;development;support;"
}
