{
    "KPackageStructure": "Plasma/Applet",
    "KPlugin": {
        "Authors": [
            {
                "Email": "sebas@kde.org",
                "Name": "Sebastian Kügler",
                "Name[ar]": "Sebastian Kügler",
                "Name[az]": "Sebastian Kügler",
                "Name[be]": "Sebastian Kügler",
                "Name[bg]": "Sebastian Kügler",
                "Name[ca@valencia]": "Sebastian Kügler",
                "Name[ca]": "Sebastian Kügler",
                "Name[cs]": "Sebastian Kügler",
                "Name[de]": "Sebastian Kügler",
                "Name[en_GB]": "Sebastian Kügler",
                "Name[eo]": "Sebastian Kügler",
                "Name[es]": "Sebastian Kügler",
                "Name[eu]": "Sebastian Kügler",
                "Name[fi]": "Sebastian Kügler",
                "Name[fr]": "Sebastian Kügler",
                "Name[gl]": "Sebastian Kügler",
                "Name[he]": "סבסטיאן קיגלר",
                "Name[hu]": "Sebastian Kügler",
                "Name[ia]": "Sebastian Kügler",
                "Name[id]": "Sebastian Kügler",
                "Name[it]": "Sebastian Kügler",
                "Name[ka]": "Sebastian Kügler",
                "Name[ko]": "Sebastian Kügler",
                "Name[lv]": "Sebastian Kügler",
                "Name[nl]": "Sebastian Kügler",
                "Name[nn]": "Sebastian Kügler",
                "Name[pl]": "Sebastian Kügler",
                "Name[pt]": "Sebastian Kügler",
                "Name[pt_BR]": "Sebastian Kügler",
                "Name[ru]": "Sebastian Kügler",
                "Name[sa]": "सेबास्टियन कुग्लर",
                "Name[sk]": "Sebastian Kügler",
                "Name[sl]": "Sebastian Kügler",
                "Name[sv]": "Sebastian Kügler",
                "Name[ta]": "ஸெபாஸ்டியன் கூக்லர்",
                "Name[tr]": "Sebastian Kügler",
                "Name[uk]": "Sebastian Kügler",
                "Name[vi]": "Sebastian Kügler",
                "Name[x-test]": "xxSebastian Küglerxx",
                "Name[zh_CN]": "Sebastian Kügler",
                "Name[zh_TW]": "Sebastian Kügler"
            }
        ],
        "Category": "Development Tools",
        "Description": "Test Components",
        "Description[bg]": "Тест на компоненти",
        "Description[ca@valencia]": "Components de prova",
        "Description[ca]": "Components de prova",
        "Description[de]": "Komponenten testen",
        "Description[eo]": "Testi Komponantojn",
        "Description[es]": "Prueba de componentes",
        "Description[eu]": "Proba osagaiak",
        "Description[fi]": "Testin osat",
        "Description[fr]": "Test de composants",
        "Description[gl]": "Compoñentes de proba.",
        "Description[he]": "בדיקת רכיבים",
        "Description[hu]": "Komponensek tesztelése",
        "Description[ia]": "Essayo de componentes( Components)",
        "Description[it]": "Prova dei componenti",
        "Description[ka]": "კომპონენტების ტესტი",
        "Description[ko]": "구성 요소 테스트",
        "Description[lv]": "Komponenšu tests",
        "Description[nl]": "Componenten testen",
        "Description[pl]": "Próba składników",
        "Description[pt_BR]": "Teste de componentes",
        "Description[ru]": "Тест компонентов",
        "Description[sa]": "परीक्षण घटक",
        "Description[sl]": "Preizkus komponent",
        "Description[tr]": "Sınama Bileşenleri",
        "Description[uk]": "Тест компонентів",
        "Description[vi]": "Các thành phần kiểm thử",
        "Description[x-test]": "xxTest Componentsxx",
        "Description[zh_CN]": "测试组件",
        "Description[zh_TW]": "測試元件",
        "Icon": "plasma",
        "Id": "org.kde.example.testcomponents",
        "License": "GPLv2+",
        "Name": "Components Test",
        "Name[az]": "Komponentlərin testləri",
        "Name[be]": "Тэставанне кампанентаў",
        "Name[bg]": "Тест на компоненти",
        "Name[ca@valencia]": "Prova de components",
        "Name[ca]": "Prova de components",
        "Name[en_GB]": "Components Test",
        "Name[eo]": "Testo de Komponentoj",
        "Name[es]": "Prueba de componentes",
        "Name[eu]": "Osagaien proba",
        "Name[fi]": "Osatesti",
        "Name[fr]": "Test de composants",
        "Name[gl]": "Proba dos compoñentes",
        "Name[he]": "בדיקת רכיבים",
        "Name[hu]": "Komponensteszt",
        "Name[ia]": "Essayo de componentes(Components)",
        "Name[id]": "Uji Komponent",
        "Name[it]": "Prova dei componenti",
        "Name[ka]": "კომპონენტების ტესტი",
        "Name[ko]": "구성 요소 테스트",
        "Name[lv]": "Komponenšu tests",
        "Name[nl]": "Test van componenten",
        "Name[nn]": "Komponenttest",
        "Name[pl]": "Próba składników",
        "Name[pt]": "Teste de Componentes",
        "Name[pt_BR]": "Teste de componentes",
        "Name[ru]": "Тест компонентов",
        "Name[sa]": "घटक परीक्षण",
        "Name[sk]": "Test komponentov",
        "Name[sl]": "Preizkus komponent",
        "Name[sv]": "Komponenttest",
        "Name[ta]": "கூறு சோதனை",
        "Name[tr]": "Bileşenler Sınaması",
        "Name[uk]": "Тестування компонентів",
        "Name[vi]": "Kiểm thử các thành phần",
        "Name[x-test]": "xxComponents Testxx",
        "Name[zh_CN]": "组件测试",
        "Name[zh_TW]": "元件測試",
        "Version": "",
        "Website": ""
    },
    "Keywords": "",
    "X-KDE-ParentApp": ""
}
